<svg width="25" height="25" viewBox="0 0 25 25" fill="none" xmlns="http://www.w3.org/2000/svg">
<path d="M12.3935 13.4707C12.4239 13.4707 12.4543 13.4707 12.4909 13.4707C12.503 13.4707 12.5152 13.4707 12.5274 13.4707C12.5456 13.4707 12.57 13.4707 12.5882 13.4707C14.3715 13.4448 15.814 12.9116 16.8791 11.8917C19.2224 9.64486 18.8328 5.79313 18.7902 5.42555C18.6381 2.66618 17.1043 1.34603 15.8384 0.729965C14.895 0.269207 13.7933 0.0207082 12.5639 0H12.5213C12.5152 0 12.503 0 12.4969 0H12.4604C11.7848 0 10.458 0.093187 9.18597 0.709257C7.90784 1.32533 6.34973 2.64548 6.19757 5.42555C6.15497 5.79313 5.76544 9.64486 8.10869 11.8917C9.16771 12.9116 10.6102 13.4448 12.3935 13.4707ZM7.82263 5.55498C7.82263 5.53945 7.82872 5.52392 7.82872 5.51356C8.02957 1.80162 11.1275 1.40298 12.4543 1.40298H12.4787C12.4909 1.40298 12.5091 1.40298 12.5274 1.40298C14.1707 1.43404 16.9643 2.00352 17.153 5.51356C17.153 5.5291 17.153 5.54463 17.1591 5.55498C17.1652 5.59122 17.5912 9.11162 15.6558 10.965C14.8889 11.7001 13.8664 12.0625 12.5213 12.0729C12.5091 12.0729 12.503 12.0729 12.4909 12.0729C12.4787 12.0729 12.4726 12.0729 12.4604 12.0729C11.1214 12.0625 10.0928 11.7001 9.33205 10.965C7.40267 9.12197 7.81654 5.58604 7.82263 5.55498Z" fill="white"/>
<path d="M24.9983 19.8591C24.9983 19.8539 24.9983 19.8488 24.9983 19.8436C24.9983 19.8022 24.9922 19.7608 24.9922 19.7142C24.9557 18.6891 24.8766 16.2921 22.2351 15.5259C22.2168 15.5207 22.1925 15.5156 22.1742 15.5104C19.4293 14.915 17.1469 13.569 17.1226 13.5535C16.7513 13.3308 16.24 13.4085 15.9783 13.7243C15.7166 14.0401 15.8079 14.475 16.1792 14.6976C16.2826 14.7597 18.705 16.1938 21.736 16.8564C23.1541 17.2861 23.3124 18.5752 23.355 19.7556C23.355 19.8022 23.355 19.8436 23.3611 19.885C23.3672 20.3509 23.3306 21.0706 23.2333 21.4847C22.2473 21.961 18.3824 23.6073 12.503 23.6073C6.64795 23.6073 2.75877 21.9558 1.7667 21.4795C1.66932 21.0654 1.62671 20.3458 1.63888 19.8798C1.63888 19.8384 1.64497 19.797 1.64497 19.7504C1.68758 18.57 1.84582 17.2809 3.26394 16.8512C6.29494 16.1886 8.71731 14.7494 8.82078 14.6924C9.19204 14.4698 9.28334 14.0349 9.02163 13.7191C8.75991 13.4033 8.24866 13.3257 7.87739 13.5483C7.85305 13.5638 5.58284 14.9099 2.82572 15.5052C2.80138 15.5104 2.78312 15.5156 2.76486 15.5207C0.123384 16.2921 0.0442611 18.6891 0.00774298 19.709C0.00774298 19.7556 0.00774284 19.797 0.00165649 19.8384C0.00165649 19.8436 0.00165649 19.8488 0.00165649 19.8539C-0.00442986 20.1231 -0.0105161 21.5054 0.31206 22.1991C0.372924 22.3338 0.482478 22.4476 0.628551 22.5253C0.811141 22.6288 5.18723 24.9999 12.5091 24.9999C19.831 24.9999 24.2071 22.6237 24.3897 22.5253C24.5296 22.4476 24.6453 22.3338 24.7062 22.1991C25.0105 21.5106 25.0044 20.1283 24.9983 19.8591Z" fill="white"/>
</svg>
